{
    "name": "yenmoc@loading",
    "references": [
        "GUID:560b04d1a97f54a4e82edc0cbbb69285",
        "GUID:f51ebe6a0ceec4240a699833d6309b23",
        "GUID:6055be8ebefd69e48b49212b09b47b2f",
        "GUID:a10c63f57d45e6f44ba33b878c879ae2"
    ],
    "includePlatforms": [],
    "excludePlatforms": [],
    "allowUnsafeCode": false,
    "overrideReferences": false,
    "precompiledReferences": [],
    "autoReferenced": true,
    "defineConstraints": [],
    "versionDefines": [],
    "noEngineReferences": false
}